<svg width="32" height="32" viewBox="0 0 32 32" fill="none" xmlns="http://www.w3.org/2000/svg">
<circle cx="16" cy="16" r="16" transform="rotate(-180 16 16)" fill="#3F0959"/>
<path d="M12 24.8L20.8 16L12.0001 7.19999" stroke="#210330" stroke-width="4" stroke-linecap="round" stroke-linejoin="round"/>
</svg>
